[
    {
	"Id":0,
	"Order":0,
	"Done":false,
	"Title":"Send report"
    },
    {
	"Id":1,
	"Order":1,
	"Done":false,
	"Title":"Run tasks"
    },
    {
	"Id":2,
	"Order":2,
	"Done":true,
	"Title":"Jibber jabber"
    }

]